0.000081930998931056819856166840
0.000039997999920160509645938873
0.000038058000427554361522197723
0.000037203999454504810273647308
0.000054725000154576264321804047
0.000063438001234317198395729065
0.000036048999390914104878902435
0.000034255001082783564925193787
0.000032508000003872439265251160
0.000036633000490837730467319489