<?xml version="1.0" encoding="UTF-8" standalone="no"?>
<!-- Created with Inkscape (http://www.inkscape.org/) -->

<svg
   xmlns:dc="http://purl.org/dc/elements/1.1/"
   xmlns:cc="http://creativecommons.org/ns#"
   xmlns:rdf="http://www.w3.org/1999/02/22-rdf-syntax-ns#"
   xmlns:svg="http://www.w3.org/2000/svg"
   xmlns="http://www.w3.org/2000/svg"
   xmlns:sodipodi="http://sodipodi.sourceforge.net/DTD/sodipodi-0.dtd"
   xmlns:inkscape="http://www.inkscape.org/namespaces/inkscape"
   width="210mm"
   height="297mm"
   viewBox="0 0 210 297"
   version="1.1"
   id="svg8"
   sodipodi:docname="kdtree-circular-contain.svg"
   inkscape:export-filename="/home/iveks/vimwiki/CS2521/fig4.png"
   inkscape:export-xdpi="96"
   inkscape:export-ydpi="96"
   inkscape:version="0.92.2 2405546, 2018-03-11">
  <defs
     id="defs2" />
  <sodipodi:namedview
     id="base"
     pagecolor="#ffffff"
     bordercolor="#666666"
     borderopacity="1.0"
     inkscape:pageopacity="0.0"
     inkscape:pageshadow="2"
     inkscape:zoom="1.6597097"
     inkscape:cx="377.00796"
     inkscape:cy="797.34385"
     inkscape:document-units="mm"
     inkscape:current-layer="layer1"
     showgrid="false"
     inkscape:pagecheckerboard="true"
     inkscape:window-width="1366"
     inkscape:window-height="727"
     inkscape:window-x="1920"
     inkscape:window-y="18"
     inkscape:window-maximized="1" />
  <metadata
     id="metadata5">
    <rdf:RDF>
      <cc:Work
         rdf:about="">
        <dc:format>image/svg+xml</dc:format>
        <dc:type
           rdf:resource="http://purl.org/dc/dcmitype/StillImage" />
        <dc:title />
      </cc:Work>
    </rdf:RDF>
  </metadata>
  <g
     inkscape:label="Layer 1"
     inkscape:groupmode="layer"
     id="layer1">
    <rect
       style="opacity:1;fill:#ffffff;fill-opacity:1;stroke:#000000;stroke-width:0;stroke-linecap:butt;stroke-linejoin:miter;stroke-miterlimit:4;stroke-dasharray:none;stroke-dashoffset:0;stroke-opacity:1;paint-order:stroke fill markers"
       id="rect815-3"
       width="103.03242"
       height="96.35067"
       x="52.384827"
       y="30.799555"
       ry="0"
       inkscape:export-xdpi="96"
       inkscape:export-ydpi="96" />
    <path
       style="fill:#ff0000;stroke:#fc0000;stroke-width:1;stroke-linecap:butt;stroke-linejoin:miter;stroke-miterlimit:4;stroke-dasharray:none;stroke-opacity:1"
       d="m 110.51118,100.02236 c 0,-14.829458 0,-32.80734 0,-32.80734"
       id="path819-6-7-0"
       inkscape:connector-curvature="0" />
    <path
       style="fill:none;stroke:#2f09ff;stroke-width:1;stroke-linecap:butt;stroke-linejoin:miter;stroke-miterlimit:4;stroke-dasharray:none;stroke-opacity:1"
       d="m 78.37679,47.9048 c -17.59882,0 -25.925144,0 -25.925144,0"
       id="path823-5-3"
       inkscape:connector-curvature="0" />
    <path
       style="fill:#ff0000;stroke:#fc0000;stroke-width:1;stroke-linecap:butt;stroke-linejoin:miter;stroke-miterlimit:4;stroke-dasharray:none;stroke-opacity:1"
       d="m 93.544334,127.4843 c 0,-12.50386 0,-27.662397 0,-27.662397"
       id="path819-6-7"
       inkscape:connector-curvature="0" />
    <path
       style="fill:none;stroke:#2f09ff;stroke-width:1;stroke-linecap:butt;stroke-linejoin:miter;stroke-miterlimit:4;stroke-dasharray:none;stroke-opacity:1"
       d="m 155.81143,58.595579 c -20.49717,0 -30.19475,0 -30.19475,0"
       id="path823-3"
       inkscape:connector-curvature="0" />
    <circle
       style="opacity:1;fill:#000000;fill-opacity:1;stroke:#008a11;stroke-width:0;stroke-linecap:butt;stroke-linejoin:miter;stroke-miterlimit:4;stroke-dasharray:none;stroke-dashoffset:0;stroke-opacity:1;paint-order:stroke fill markers"
       id="path902"
       cx="129.94984"
       cy="58.501083"
       r="1.3363476" />
    <rect
       style="opacity:1;fill:#f9ff04;fill-opacity:0.50511944;stroke:none;stroke-width:0.265;stroke-linecap:butt;stroke-linejoin:miter;stroke-miterlimit:4;stroke-dasharray:none;stroke-dashoffset:0;stroke-opacity:1;paint-order:stroke fill markers"
       id="rect8778"
       width="47.573978"
       height="32.673702"
       x="78.042702"
       y="67.348656" />
    <path
       style="fill:none;stroke:#2f09ff;stroke-width:1;stroke-linecap:butt;stroke-linejoin:miter;stroke-opacity:1;stroke-miterlimit:4;stroke-dasharray:none"
       d="m 125.61668,100.02236 c -49.712136,0 -73.231853,0 -73.231853,0"
       id="path823"
       inkscape:connector-curvature="0" />
    <path
       style="fill:#ff0000;stroke:#fc0000;stroke-width:1;stroke-linecap:butt;stroke-linejoin:miter;stroke-miterlimit:4;stroke-dasharray:none;stroke-opacity:1"
       d="m 78.176339,100.35645 c 0,-31.471085 0,-69.623718 0,-69.623718"
       id="path819-6"
       inkscape:connector-curvature="0" />
    <path
       style="fill:none;stroke:#2f09ff;stroke-width:1;stroke-linecap:butt;stroke-linejoin:miter;stroke-miterlimit:4;stroke-dasharray:none;stroke-opacity:1"
       d="m 125.48304,67.348658 c -32.204025,0 -47.440339,0 -47.440339,0"
       id="path823-5"
       inkscape:connector-curvature="0" />
    <circle
       style="opacity:1;fill:#000000;fill-opacity:1;stroke:#008a11;stroke-width:0;stroke-linecap:butt;stroke-linejoin:miter;stroke-miterlimit:4;stroke-dasharray:none;stroke-dashoffset:0;stroke-opacity:1;paint-order:stroke fill markers"
       id="path902-5"
       cx="115.46044"
       cy="67.281837"
       r="1.3363476" />
    <path
       style="fill:#ff0000;stroke:#fc0000;stroke-width:1;stroke-linecap:butt;stroke-linejoin:miter;stroke-miterlimit:4;stroke-dasharray:none;stroke-opacity:1"
       d="m 125.75031,126.74931 c 0,-43.4313 0,-96.083396 0,-96.083396"
       id="path819"
       inkscape:connector-curvature="0" />
    <circle
       style="opacity:1;fill:#000000;fill-opacity:1;stroke:#008a11;stroke-width:0;stroke-linecap:butt;stroke-linejoin:miter;stroke-miterlimit:4;stroke-dasharray:none;stroke-dashoffset:0;stroke-opacity:1;paint-order:stroke fill markers"
       id="path902-5-6"
       cx="125.67709"
       cy="38.086311"
       r="1.3363476" />
    <path
       style="fill:none;stroke:#aaabaa;stroke-width:0.46500005;stroke-linecap:butt;stroke-linejoin:miter;stroke-miterlimit:4;stroke-dasharray:1.39500015,0.46500005;stroke-dashoffset:0;stroke-opacity:1"
       d="M 118.79127,92.555267 78.063615,99.905555"
       id="path8596-5-6"
       inkscape:connector-curvature="0"
       sodipodi:nodetypes="cc" />
    <rect
       style="opacity:1;fill:#ffffff;fill-opacity:0;stroke:#000000;stroke-width:3;stroke-linecap:butt;stroke-linejoin:miter;stroke-miterlimit:4;stroke-dasharray:none;stroke-dashoffset:0;stroke-opacity:1;paint-order:stroke fill markers"
       id="rect815"
       width="103.03241"
       height="96.35067"
       x="52.384827"
       y="30.799551"
       ry="0"
       inkscape:export-xdpi="96"
       inkscape:export-ydpi="96"
       inkscape:export-filename="/home/iveks/vimwiki/CS2521/fig1.png" />
    <circle
       style="opacity:1;fill:#000000;fill-opacity:1;stroke:#008a11;stroke-width:0;stroke-linecap:butt;stroke-linejoin:miter;stroke-miterlimit:4;stroke-dasharray:none;stroke-dashoffset:0;stroke-opacity:1;paint-order:stroke fill markers"
       id="path902-2"
       cx="78.052078"
       cy="94.68824"
       r="1.3363476" />
    <circle
       style="opacity:1;fill:#000000;fill-opacity:1;stroke:#008a11;stroke-width:0;stroke-linecap:butt;stroke-linejoin:miter;stroke-miterlimit:4;stroke-dasharray:none;stroke-dashoffset:0;stroke-opacity:1;paint-order:stroke fill markers"
       id="path902-2-9"
       cx="65.011909"
       cy="47.819199"
       r="1.3363476" />
    <circle
       style="opacity:1;fill:#000000;fill-opacity:1;stroke:#008a11;stroke-width:0;stroke-linecap:butt;stroke-linejoin:miter;stroke-miterlimit:4;stroke-dasharray:none;stroke-dashoffset:0;stroke-opacity:1;paint-order:stroke fill markers"
       id="path902-2-9-1"
       cx="99.596725"
       cy="99.979912"
       r="1.3363476" />
    <circle
       style="opacity:1;fill:#000000;fill-opacity:1;stroke:#008a11;stroke-width:0;stroke-linecap:butt;stroke-linejoin:miter;stroke-miterlimit:4;stroke-dasharray:none;stroke-dashoffset:0;stroke-opacity:1;paint-order:stroke fill markers"
       id="path902-2-9-1-2"
       cx="93.549103"
       cy="119.63467"
       r="1.3363476" />
    <circle
       style="opacity:1;fill:#000000;fill-opacity:1;stroke:#008a11;stroke-width:0;stroke-linecap:butt;stroke-linejoin:miter;stroke-miterlimit:4;stroke-dasharray:none;stroke-dashoffset:0;stroke-opacity:1;paint-order:stroke fill markers"
       id="path902-2-9-1-2-9"
       cx="110.51595"
       cy="80.746956"
       r="1.3363476" />
    <path
       style="fill:none;stroke:#aaabaa;stroke-width:0.46500005;stroke-linecap:butt;stroke-linejoin:miter;stroke-miterlimit:4;stroke-dasharray:1.39500015,0.46500005;stroke-dashoffset:0;stroke-opacity:1"
       d="m 118.79127,92.555267 6.82541,7.467093"
       id="path8596-5-9"
       inkscape:connector-curvature="0"
       sodipodi:nodetypes="cc" />
    <path
       style="fill:none;stroke:#fbfb00;stroke-width:0.46500002;stroke-linecap:butt;stroke-linejoin:miter;stroke-miterlimit:4;stroke-dasharray:1.39500005,0.46500002;stroke-dashoffset:0;stroke-opacity:1"
       d="M 118.79127,92.555267 78.042701,67.348658"
       id="path8596-5-6-2"
       inkscape:connector-curvature="0"
       sodipodi:nodetypes="cc" />
    <path
       style="fill:none;stroke:#aaabaa;stroke-width:0.46500002;stroke-linecap:butt;stroke-linejoin:miter;stroke-miterlimit:4;stroke-dasharray:1.39500005,0.46500002;stroke-dashoffset:0;stroke-opacity:1"
       d="m 118.79127,92.555267 6.69177,-25.206609"
       id="path8596-5"
       inkscape:connector-curvature="0"
       sodipodi:nodetypes="cc" />
    <circle
       style="opacity:1;fill:none;fill-opacity:1;stroke:#008a11;stroke-width:0.4;stroke-linecap:butt;stroke-linejoin:miter;stroke-miterlimit:4;stroke-dasharray:0.4,0.4;stroke-dashoffset:0;stroke-opacity:1;paint-order:stroke fill markers"
       id="path8594"
       cx="118.76785"
       cy="91.629471"
       r="54.777512" />
    <g
       id="g1112"
       transform="matrix(0.7251925,0,0,0.7251925,19.952002,10.925788)"
       style="fill:none">
      <path
         inkscape:connector-curvature="0"
         id="path1084"
         d="m 134.77217,110.86035 c 1.8689,1.8689 3.22383,3.22383 3.22383,3.22383"
         style="fill:none;stroke:#008a11;stroke-width:0.99916255;stroke-linecap:butt;stroke-linejoin:miter;stroke-miterlimit:4;stroke-dasharray:none;stroke-opacity:1" />
      <path
         inkscape:connector-curvature="0"
         id="path1084-1"
         d="m 137.996,110.86035 c -1.8689,1.8689 -3.22383,3.22383 -3.22383,3.22383"
         style="fill:none;stroke:#008a11;stroke-width:0.99916255;stroke-linecap:butt;stroke-linejoin:miter;stroke-miterlimit:4;stroke-dasharray:none;stroke-opacity:1" />
    </g>
    <path
       style="fill:none;stroke:#018a12;stroke-width:0.465;stroke-linecap:butt;stroke-linejoin:miter;stroke-opacity:1;stroke-miterlimit:4;stroke-dasharray:none;stroke-dashoffset:0"
       d="M 118.79127,92.555267 C 143.18883,60.306393 152.60102,48.271125 152.60102,48.271125"
       id="path8596"
       inkscape:connector-curvature="0"
       sodipodi:nodetypes="cc" />
    <g
       id="g1112-1"
       transform="matrix(0.72519249,0,0,0.72519249,26.78225,18.507593)"
       style="fill:none">
      <path
         inkscape:connector-curvature="0"
         id="path1084-2"
         d="m 134.77217,110.86035 c 1.8689,1.8689 3.22383,3.22383 3.22383,3.22383"
         style="fill:none;stroke:#aaabaa;stroke-width:0.99916255;stroke-linecap:butt;stroke-linejoin:miter;stroke-miterlimit:4;stroke-dasharray:none;stroke-opacity:1" />
      <path
         inkscape:connector-curvature="0"
         id="path1084-1-7"
         d="m 137.996,110.86035 c -1.8689,1.8689 -3.22383,3.22383 -3.22383,3.22383"
         style="fill:none;stroke:#aaabaa;stroke-width:0.99916255;stroke-linecap:butt;stroke-linejoin:miter;stroke-miterlimit:4;stroke-dasharray:none;stroke-opacity:1" />
    </g>
    <g
       id="g1112-1-9"
       transform="matrix(0.72519249,0,0,0.72519249,26.894974,-14.182289)"
       style="fill:none">
      <path
         inkscape:connector-curvature="0"
         id="path1084-2-3"
         d="m 134.77217,110.86035 c 1.8689,1.8689 3.22383,3.22383 3.22383,3.22383"
         style="fill:none;stroke:#aaabaa;stroke-width:0.99916255;stroke-linecap:butt;stroke-linejoin:miter;stroke-miterlimit:4;stroke-dasharray:none;stroke-opacity:1" />
      <path
         inkscape:connector-curvature="0"
         id="path1084-1-7-6"
         d="m 137.996,110.86035 c -1.8689,1.8689 -3.22383,3.22383 -3.22383,3.22383"
         style="fill:none;stroke:#aaabaa;stroke-width:0.99916255;stroke-linecap:butt;stroke-linejoin:miter;stroke-miterlimit:4;stroke-dasharray:none;stroke-opacity:1" />
    </g>
    <g
       id="g1112-1-9-0"
       transform="matrix(0.95463544,0,0,0.95463544,-51.96681,-39.988259)"
       style="fill:none;stroke:#fbfb00;stroke-opacity:1">
      <path
         inkscape:connector-curvature="0"
         id="path1084-2-3-6"
         d="m 134.77217,110.86035 c 1.8689,1.8689 3.22383,3.22383 3.22383,3.22383"
         style="fill:none;stroke:#fbfb00;stroke-width:0.99916255;stroke-linecap:butt;stroke-linejoin:miter;stroke-miterlimit:4;stroke-dasharray:none;stroke-opacity:1" />
      <path
         inkscape:connector-curvature="0"
         id="path1084-1-7-6-2"
         d="m 137.996,110.86035 c -1.8689,1.8689 -3.22383,3.22383 -3.22383,3.22383"
         style="fill:none;stroke:#fbfb00;stroke-width:0.99916255;stroke-linecap:butt;stroke-linejoin:miter;stroke-miterlimit:4;stroke-dasharray:none;stroke-opacity:1" />
    </g>
    <g
       id="g1112-1-9-0-6"
       transform="matrix(0.72519249,0,0,0.72519249,-20.674442,18.507593)"
       style="fill:none">
      <path
         inkscape:connector-curvature="0"
         id="path1084-2-3-6-1"
         d="m 134.77217,110.86035 c 1.8689,1.8689 3.22383,3.22383 3.22383,3.22383"
         style="fill:none;stroke:#aaabaa;stroke-width:0.99916255;stroke-linecap:butt;stroke-linejoin:miter;stroke-miterlimit:4;stroke-dasharray:none;stroke-opacity:1" />
      <path
         inkscape:connector-curvature="0"
         id="path1084-1-7-6-2-8"
         d="m 137.996,110.86035 c -1.8689,1.8689 -3.22383,3.22383 -3.22383,3.22383"
         style="fill:none;stroke:#aaabaa;stroke-width:0.99916255;stroke-linecap:butt;stroke-linejoin:miter;stroke-miterlimit:4;stroke-dasharray:none;stroke-opacity:1" />
    </g>
    <circle
       style="opacity:1;fill:none;fill-opacity:1;stroke:#fbfb00;stroke-width:0.40298763;stroke-linecap:butt;stroke-linejoin:miter;stroke-miterlimit:4;stroke-dasharray:1.61195053, 0.40298764;stroke-dashoffset:0;stroke-opacity:1;paint-order:stroke fill markers"
       id="path8757"
       cx="118.81081"
       cy="92.180969"
       r="48.129745" />
    <circle
       style="opacity:1;fill:#fc1010;fill-opacity:1;stroke:#000000;stroke-width:1;stroke-linecap:butt;stroke-linejoin:miter;stroke-miterlimit:4;stroke-dasharray:none;stroke-dashoffset:0;stroke-opacity:1;paint-order:stroke fill markers"
       id="path902-2-7"
       cx="141.0174"
       cy="82.48674"
       r="1.3363476" />
    <circle
       style="opacity:1;fill:#2f09ff;fill-opacity:1;stroke:#000000;stroke-width:1;stroke-linecap:butt;stroke-linejoin:miter;stroke-miterlimit:4;stroke-dasharray:none;stroke-dashoffset:0;stroke-opacity:1;paint-order:stroke fill markers"
       id="path902-2-7-9"
       cx="141.0174"
       cy="87.22113"
       r="1.3363476" />
    <circle
       style="opacity:1;fill:#fbfb00;fill-opacity:1;stroke:#000000;stroke-width:1;stroke-linecap:butt;stroke-linejoin:miter;stroke-miterlimit:4;stroke-dasharray:none;stroke-dashoffset:0;stroke-opacity:1;paint-order:stroke fill markers"
       id="path902-2-7-2"
       cx="141.0174"
       cy="77.526886"
       r="1.3363476" />
  </g>
</svg>
